TITL ABEGEU ABEGEU ABEGEU
CELL  0.7 6.828 7.197 7.384 70.22 74.28 65.7
ZERR 2 0.002 0.003 0.003 0.010 0.010 0.010
LATT 1
SFAC  C H N O
UNIT 14 10 2 2
FVAR 1.00
C1 1     0.282082946     0.532121082     0.281050258 
C2 1     0.286917821     0.401525373     0.470408299 
C3 1     0.245185939     0.214931781     0.514669507 
C4 1     0.198631379     0.157693519     0.371443668 
C5 1     0.194545047     0.289774506     0.183669293 
C6 1     0.235857855     0.476142261     0.137616820 
C7 1     0.250085049     0.080614173     0.709064651 
H1 2     0.322829996     0.446018881     0.580557103 
H2 2     0.166718696     0.012687818     0.408362959 
H3 2     0.158879892     0.247851256     0.071376539 
H4 2     0.232269305     0.578289970    -0.009667361 
H5 2     0.315779253     0.788487187     0.110454981 
N1 3     0.253801094    -0.029015981     0.866416259 
O1 4     0.323845726     0.711748174     0.245417026 
END