TITL ADOKAF ADOKAF ADOKAF
CELL  0.7 6.276 8.914 10.151 68.4 77.04 76.21
ZERR 2 0.001 0.001 0.001 0.01 0.01 0.01
LATT 1
SFAC  C H N O
UNIT 24 26 2 2
FVAR 1.00
C1 1     0.278950001     0.221813869     0.345987642 
C2 1     0.376749876     0.280889840     0.433349565 
C3 1     0.545176679     0.366322020     0.371157632 
C4 1     0.652413989     0.400821787     0.217483518 
C5 1     0.606009756     0.283947181     0.152602523 
C6 1     0.359097293     0.271599349     0.186526591 
C7 1     0.289926165     0.248948465     0.588429352 
C8 1     0.438791387     0.192060103     0.687728356 
C9 1     0.363145171     0.168532551     0.832782367 
C10 1     0.136540495     0.201390859     0.881142199 
C11 1    -0.013421643     0.257476635     0.783386960 
C12 1     0.062144226     0.280550010     0.638610782 
H1 2     0.606543803     0.415640654     0.435965646 
H2 2     0.590983011     0.528514403     0.155311733 
H3 2     0.831652391     0.392840074     0.209885267 
H4 2     0.659468734     0.323839779     0.036522564 
H5 2     0.702549202     0.161988882     0.197719841 
H6 2     0.261014881     0.391006428     0.134786157 
H7 2     0.325239409     0.184563676     0.144655734 
H8 2     0.615005988     0.164319009     0.650408134 
H9 2     0.481284389     0.123665187     0.907932083 
H10 2     0.076985484     0.182890878     0.994070764 
H11 2    -0.190219964     0.283536163     0.820115668 
H12 2    -0.055131348     0.323464018     0.563441372 
H13 2    -0.057551821     0.017189083     0.381684937 
N1 3     0.128531280     0.131976698     0.411495608 
O1 4     0.044761161     0.086942398     0.316507004 
END