TITL BAMWIV01 BAMWIV01 BAMWIV01
CELL  0.7 5.2249 8.002 13.048 78.654 87.282 76.797
ZERR 2 0.0019 0.003 0.005 0.007 0.007 0.007
LATT 1
SFAC  C H N O
UNIT 26 26 2 2
FVAR 1.00
C1 1     1.191280227     0.065336866     0.088852394 
C2 1     1.016522894     0.079458370     0.183025669 
C3 1     1.154050514    -0.048539620     0.270069298 
C4 1     1.395678218    -0.133406227     0.229986465 
C5 1     1.576105283    -0.263626132     0.292194648 
C6 1     1.513708237    -0.310883325     0.397871113 
C7 1     1.277288060    -0.229393632     0.439201280 
C8 1     1.096952859    -0.098256335     0.375673935 
C9 1     0.782842331     0.197577072     0.172168026 
C10 1     0.588425117     0.231817261     0.251524636 
C11 1     0.356546767     0.351309295     0.237630805 
C12 1     0.263413000     0.469206611     0.135558145 
C13 1     0.170456578     0.373758019     0.327893885 
H1 2     1.759832137    -0.326886361     0.259973350 
H2 2     1.651758328    -0.412455130     0.448135298 
H3 2     1.232659717    -0.267959278     0.521339243 
H4 2     0.914622486    -0.036695049     0.409301778 
H5 2     0.744948972     0.272664275     0.093240023 
H6 2     0.630605795     0.155305794     0.329689960 
H7 2     0.400866726     0.450803182     0.071132814 
H8 2     0.227583563     0.606615246     0.143533947 
H9 2     0.074763970     0.448089569     0.113612581 
H10 2     0.246794145     0.285432808     0.400220002 
H11 2    -0.020650322     0.349749523     0.311320409 
H12 2     0.131612761     0.508515599     0.341268248 
H13 2     1.563460216    -0.100828375     0.075982603 
N1 3     1.412475584    -0.064239758     0.123713663 
O1 4     1.153995846     0.147659729    -0.000424221 
END