TITL CDECOX CDECOX CDECOX
CELL  0.7 5.447 7.688 12.802 77.83 70.11 74.19
ZERR 2 0.001 0.001 0.002 0.01 0.01 0.01
LATT 1
SFAC  C H N O
UNIT 20 38 2 2
FVAR 1.00
C1 1     0.511068659     0.943941658     0.152220529 
C2 1     0.317957119     1.075503619     0.231485524 
C3 1     0.387750447     1.068206270     0.340141101 
C4 1     0.447806345     0.875338090     0.403724319 
C5 1     0.746370361     0.780474137     0.366333993 
C6 1     0.804964212     0.571155894     0.382876103 
C7 1     0.712490431     0.488726091     0.306856021 
C8 1     0.845905377     0.538556589     0.180058206 
C9 1     0.652780894     0.609218404     0.108805300 
C10 1     0.427823806     0.773874434     0.147709168 
H1 2     0.118923651     1.046326236     0.254195918 
H2 2     0.308630576     1.214199897     0.187025537 
H3 2     0.218222568     1.155368342     0.393965251 
H4 2     0.559949137     1.130217583     0.319244131 
H5 2     0.324412917     0.792880040     0.393153104 
H6 2     0.384898209     0.882701791     0.493927579 
H7 2     0.849991785     0.825624295     0.412271662 
H8 2     0.834760799     0.828876981     0.278199701 
H9 2     0.711380284     0.521712585     0.470811350 
H10 2     1.021400229     0.519283153     0.367131397 
H11 2     0.494417153     0.531634873     0.326989517 
H12 2     0.752613711     0.340184567     0.328686533 
H13 2     0.992166641     0.419176095     0.146009390 
H14 2     0.960112809     0.642209287     0.167173759 
H15 2     0.558378280     0.499916201     0.108953297 
H16 2     0.768361492     0.644921407     0.021906450 
H17 2     0.296793684     0.735568336     0.231055560 
H18 2     0.298475969     0.811598966     0.093004228 
H19 2     0.966914723     1.130549075     0.044514218 
N1 3     0.740050346     0.967450457     0.086536824 
O1 4     0.792307378     1.131834641     0.098494329 
END