TITL FEPNAP FEPNAP FEPNAP
CELL  0.7 5.011 5.188 7.395 107.82 106.04 99.23
ZERR 2 0.002 0.002 0.004 0.04 0.04 0.03
LATT 1
SFAC  C H N O
UNIT 6 10 2 2
FVAR 1.00
C1 1     0.168455109     0.823894080     0.796655453 
C2 1     0.352148612     0.827445617     0.659290925 
C3 1     0.359325992     1.143391469     0.713806956 
H1 2     0.102316410     1.236856938     0.924891984 
H2 2     0.238956850     0.692849881     0.500446285 
H3 2     0.559605508     0.784224566     0.713809267 
H4 2     0.572857936     1.290834920     0.799979536 
H5 2     0.251548087     1.199369226     0.586539345 
N1 3     0.184544555     1.104408861     0.838002662 
O1 4     0.053840941     0.651824442     0.849977588 
END