TITL GETVOS GETVOS GETVOS
CELL  0.7 6.7916 8.2851 9.0747 75.69 83.678 88.747
ZERR 2 0.0003 0.0003 0.0003 0.003 0.002 0.002
LATT 1
SFAC  C H N O
UNIT 26 22 2 2
FVAR 1.00
C1 1     0.230841657     0.399105627    -0.008982355 
C2 1     0.204840147     0.233637171    -0.049103964 
C3 1     0.202897939     0.088860933     0.093477194 
C4 1     0.396101402     0.096603988     0.167310441 
C5 1     0.354120793     0.233200189     0.251898547 
C6 1     0.473704248     0.255645928     0.370776861 
C7 1     0.386836744     0.300146974     0.495887293 
C8 1     0.172862227     0.314502547     0.524031013 
C9 1     0.050233329     0.284050362     0.426479697 
C10 1     0.131334193     0.248146078     0.281202378 
C11 1     0.037602092     0.120643942     0.214443391 
C12 1     0.248943109     0.388829094     0.156654122 
C13 1     0.273398789     0.546531769     0.191788940 
H1 2     0.325578557     0.222430622    -0.136583253 
H2 2     0.066936384     0.239759801    -0.102566113 
H3 2     0.184237490    -0.030182470     0.065103739 
H4 2     0.526776501     0.121224121     0.082703935 
H5 2     0.420603134    -0.020023903     0.251362391 
H6 2     0.631912133     0.233130091     0.356337623 
H7 2     0.476496159     0.319115662     0.582119375 
H8 2     0.111933738     0.343575627     0.630072502 
H9 2    -0.109512116     0.282865555     0.453864141 
H10 2     0.004113970     0.007911694     0.306118957 
H11 2    -0.100089045     0.163279263     0.165122606 
N1 3     0.293313655     0.672381176     0.223098811 
O1 4     0.236772772     0.531678158    -0.103858271 
END