TITL GOFPUO GOFPUO GOFPUO
CELL  0.7 7.2916 7.6554 8.4211 75.505 67.538 63.141
ZERR 2 0.0007 0.0008 0.0009 0.004 0.003 0.004
LATT 1
SFAC  C H N O
UNIT 16 22 2 2
FVAR 1.00
C1 1     1.003693721     0.210220099     0.323073510 
C2 1     0.821855758     0.226361144     0.297214441 
C3 1     0.865393314     0.245455850     0.112510318 
C4 1     1.075261593     0.239914191     0.033719281 
C5 1     0.619024587     0.224252804     0.435623157 
C6 1     1.212963394     0.252177368    -0.150206017 
C7 1     0.710637348     0.266377407     0.030628797 
C8 1     0.773878697     0.285477312    -0.165419773 
H1 2     1.303428791     0.210304838     0.144057109 
H2 2     1.038429415     0.193532162     0.440957642 
H3 2     0.634703379     0.207662843     0.563328660 
H4 2     0.582140532     0.104283280     0.426598802 
H5 2     0.479099602     0.359558204     0.423641690 
H6 2     1.138921654     0.390969914    -0.222226525 
H7 2     1.243288649     0.133284661    -0.219035923 
H8 2     1.370196272     0.241839610    -0.156421078 
H9 2     0.916804254     0.156731313    -0.219497611 
H10 2     0.812177401     0.414833495    -0.222517333 
H11 2     0.638272250     0.299235958    -0.200416986 
N1 3     1.154628621     0.218624020     0.163390731 
O1 4     0.530600764     0.268803520     0.117197112 
END