TITL KUNDIG KUNDIG KUNDIG
CELL  0.7 8.929 8.99 8.094 103.79 116.71 67.86
ZERR 2 0.002 0.002 0.002 0.02 0.02 0.02
LATT 1
SFAC  C H N O
UNIT 26 30 2 2
FVAR 1.00
C1 1     1.393836634    -0.025246332     0.715974518 
C2 1     1.302464180    -0.042923565     0.503771204 
C3 1     1.193773846     0.119932212     0.420816520 
C4 1     1.052898810     0.123841365     0.219844608 
C5 1     0.901077548     0.284899200     0.215975330 
C6 1     0.919076136     0.316758284     0.417217543 
C7 1     0.805222849     0.422391563     0.500687177 
C8 1     0.863636950     0.418457410     0.692718259 
C9 1     1.025535391     0.314756441     0.800378576 
C10 1     1.137908531     0.212785056     0.715228727 
C11 1     1.082964628     0.220009736     0.526501718 
C12 1     0.722366014     0.272792914     0.067869260 
C13 1     0.627989680     0.536791068     0.393807704 
H1 2     1.358454544     0.103966209     0.945443142 
H2 2     1.214568782    -0.114528896     0.469781578 
H3 2     1.404611069    -0.114155511     0.452157263 
H4 2     1.285329814     0.181562685     0.435294572 
H5 2     1.000577840     0.023286156     0.189493992 
H6 2     1.103412419     0.112587284     0.115423226 
H7 2     0.929629699     0.381235795     0.184222900 
H8 2     0.777980661     0.498561814     0.760726810 
H9 2     1.062400943     0.313706667     0.947650344 
H10 2     0.618146484     0.388549704     0.052652595 
H11 2     0.682717102     0.186829691     0.102477785 
H12 2     0.730712235     0.230396242    -0.067196299 
H13 2     0.574408028     0.624654478     0.488398470 
H14 2     0.637113457     0.603642536     0.303674861 
H15 2     0.531501134     0.473497053     0.305036979 
N1 3     1.302384332     0.101135853     0.805357037 
O1 4     1.535700255    -0.118573111     0.804113603 
END