TITL LIJQAW LIJQAW LIJQAW
CELL  0.7 7.604 9.045 7.452 90.65 97.03 77.95
ZERR 2 0.003 0.004 0.002 0.03 0.03 0.03
LATT 1
SFAC  C H N O
UNIT 22 30 2 2
FVAR 1.00
C1 1     0.206896329     0.225999006     0.837818441 
C2 1     0.243283771     0.073193581     0.943241630 
C3 1     0.185141849    -0.055516586     0.836555936 
C4 1     0.274254352    -0.077741967     0.660053683 
C5 1     0.241729215     0.070041851     0.550645291 
C6 1     0.304664400     0.196476350     0.663091383 
C7 1     0.282925459     0.344227959     0.555932829 
C8 1     0.350540986     0.467002004     0.671915519 
C9 1     0.256883529     0.495480376     0.843803491 
C10 1     0.277138245     0.349235070     0.953100628 
C11 1     0.010642011     0.273383371     0.785181973 
H1 2     0.037355942    -0.027145781     0.803005704 
H2 2     0.221171818    -0.157236478     0.921989904 
H3 2     0.222292585    -0.164743714     0.579370774 
H4 2     0.420461137    -0.120380138     0.694413678 
H5 2     0.314020498     0.051811990     0.431184632 
H6 2     0.097269415     0.106326299     0.501027752 
H7 2     0.449031968     0.157562521     0.713414550 
H8 2     0.356805958     0.321224870     0.437839490 
H9 2     0.139435120     0.383793163     0.504034794 
H10 2     0.497505534     0.431469275     0.709956312 
H11 2     0.328631258     0.571904565     0.592665992 
H12 2     0.313229533     0.578249866     0.928479200 
H13 2     0.112488591     0.544696004     0.806914468 
H14 2     0.419792047     0.303278046     1.001376308 
H15 2     0.206435169     0.368959136     1.073099372 
N1 3    -0.144558580     0.310314742     0.743128624 
O1 4     0.321631866     0.059734621     1.095757646 
END