TITL LOGFIW LOGFIW LOGFIW
CELL  0.7 6.376 7.988 11.776 101.61 101.13 110.34
ZERR 2 0.003 0.003 0.004 0.02 0.02 0.02
LATT 1
SFAC  C H N O
UNIT 22 38 2 2
FVAR 1.00
C1 1     0.521056892     0.253845082     0.368838162 
C2 1     0.735632443     0.378035620     0.343046859 
C3 1     0.638256667     0.462066244     0.249140102 
C4 1     0.644649216     0.653012408     0.312347009 
C5 1     0.498376939     0.721599135     0.229548987 
C6 1     0.244456673     0.578846427     0.180881396 
C7 1     0.230122854     0.389255551     0.111559288 
C8 1     0.385375107     0.312121370     0.182589777 
C9 1     0.301150723     0.250140622     0.289128666 
C10 1     0.396041195     0.147520300     0.093585841 
C11 1     0.086173097     0.068000077     0.256784661 
H1 2     0.706694322     0.100456728     0.555823968 
H2 2     0.861014194     0.483557357     0.425769369 
H3 2     0.825499288     0.293439676     0.308340255 
H4 2     0.739658073     0.481478706     0.183878995 
H5 2     0.827000104     0.754166899     0.347267177 
H6 2     0.580319423     0.643963066     0.391927674 
H7 2     0.569818886     0.742238197     0.153213121 
H8 2     0.508551315     0.857650240     0.278388481 
H9 2     0.169212542     0.565624530     0.256662478 
H10 2     0.138849328     0.627141682     0.121335284 
H11 2     0.048898989     0.285682475     0.080075503 
H12 2     0.283574659     0.403893428     0.029551304 
H13 2     0.262508753     0.362261915     0.339283063 
H14 2     0.220696030     0.043421333     0.042277360 
H15 2     0.485469830     0.196659886     0.028586148 
H16 2     0.489091485     0.076676177     0.139499218 
H17 2     0.042061540     0.042967760     0.338720155 
H18 2    -0.064459927     0.073193779     0.197002859 
H19 2     0.117160061    -0.051248554     0.211943510 
N1 3     0.511766769     0.156055181     0.442507711 
O1 4     0.739502520     0.181966702     0.505165618 
END