TITL NIQQEK NIQQEK NIQQEK
CELL  0.7 5.5911 7.932 11.803 90.649 91.985 90.323
ZERR 2 0.0016 0.002 0.003 0.005 0.004 0.005
LATT 1
SFAC  C H N O
UNIT 26 26 2 2
FVAR 1.00
C1 1     0.880401830     0.807146609     1.078711985 
C2 1     1.043579145     0.684897641     1.117797763 
C3 1     1.070360911     0.651580006     1.233520504 
C4 1     0.934010135     0.739100784     1.311223566 
C5 1     0.771030718     0.860463133     1.273997133 
C6 1     0.746106973     0.892988709     1.158237867 
C7 1     0.846106961     0.839808480     0.953712393 
C8 1     0.605972918     0.725980364     0.789144427 
C9 1     0.723291101     0.828120360     0.711531314 
C10 1     0.644672723     0.831162315     0.598137209 
C11 1     0.448723067     0.734850808     0.559347163 
C12 1     0.330981084     0.633797161     0.636379190 
C13 1     0.407760103     0.628983041     0.749450376 
H1 2     0.557181593     0.673453405     0.954701291 
H2 2     1.280082744     0.524424371     1.076165610 
H3 2     1.197999084     0.557083806     1.262525209 
H4 2     0.956342830     0.712095527     1.400920403 
H5 2     0.665015619     0.929177105     1.334160031 
H6 2     0.620196597     0.987752691     1.128154285 
H7 2     0.780371272     0.969302741     0.941347837 
H8 2     1.018447141     0.830670075     0.912863938 
H9 2     0.875813592     0.904680112     0.739374759 
H10 2     0.738324836     0.910883542     0.539736394 
H11 2     0.388345041     0.738342482     0.471055912 
H12 2     0.177499287     0.557882995     0.608096309 
H13 2     0.315629421     0.549378767     0.808573093 
N1 3     0.682460323     0.715298621     0.901942272 
O1 4     1.173452951     0.602954338     1.038521770 
END