TITL PIPZIX PIPZIX PIPZIX
CELL  0.7 6.042 7.516 11.725 116.0 108.01 105.85
ZERR 2 0.001 0.001 0.002 0.1 0.01 0.02
LATT 1
SFAC  C H N O
UNIT 18 26 2 2
FVAR 1.00
C1 1     0.459094029     0.786406939     0.589249277 
C2 1     0.471645702     1.009816930     0.685171528 
C3 1     0.242180338     0.982859849     0.717842209 
C4 1     0.197714417     0.822082202     0.762810965 
C5 1     0.079564410     0.850883430     0.861508615 
C6 1    -0.028498412     0.641228172     0.861651535 
C7 1     0.168975709     0.549837635     0.874386064 
C8 1     0.216593382     0.479725224     0.743873577 
C9 1     0.256371651     0.653735416     0.709969693 
H1 2     0.365882115     0.483142780     0.558948257 
H2 2     0.482602989     1.098795114     0.632737945 
H3 2     0.660096620     1.107778319     0.788008902 
H4 2     0.059100514     0.921151210     0.620770487 
H5 2     0.282293153     1.147995391     0.803632977 
H6 2    -0.079253336     0.891734785     0.827243348 
H7 2     0.229078907     0.998277661     0.973594149 
H8 2    -0.215880296     0.510428101     0.759406614 
H9 2    -0.072682708     0.680743373     0.950956447 
H10 2     0.098314702     0.406439238     0.881405159 
H11 2     0.357597255     0.681291195     0.975615409 
H12 2     0.047765998     0.317165007     0.646750330 
H13 2     0.390531288     0.452880986     0.765592301 
N1 3     0.359103048     0.627485961     0.614064225 
O1 4     0.539666536     0.750400086     0.502064998 
END