TITL TMZCNO TMZCNO TMZCNO
CELL  0.7 6.1478 8.4647 12.323 105.0 98.22 102.7
ZERR 2 0.0007 0.0008 0.002 0.1 0.01 0.01
LATT 1
SFAC  C H N O
UNIT 24 46 2 2
FVAR 1.00
C1 1     0.212859101     0.875699348     0.045284428 
C2 1    -0.019166527     0.782202327     0.058537313 
C3 1     0.004161536     0.648691824     0.122286733 
C4 1    -0.055123993     0.682367490     0.242997616 
C5 1     0.041495130     0.870024739     0.317208028 
C6 1     0.297905649     0.948182181     0.328470271 
C7 1     0.362646371     1.133207959     0.324147240 
C8 1     0.248146291     1.145406744     0.206960532 
C9 1     0.041468685     0.567351642     0.303746558 
C10 1    -0.316079163     0.636520705     0.229284181 
C11 1     0.623235340     1.193616676     0.340533028 
C12 1     0.284860966     1.250667526     0.419457427 
H1 2     0.463707397     1.087118226     0.092168636 
H2 2    -0.113874469     0.867640154     0.098925533 
H3 2    -0.114846681     0.717383677    -0.029585468 
H4 2    -0.106358729     0.524336538     0.069317790 
H5 2     0.177689968     0.634570975     0.127646884 
H6 2    -0.058014974     0.944418393     0.281709850 
H7 2     0.004006305     0.880388264     0.402720931 
H8 2     0.394684874     0.944458506     0.409255056 
H9 2     0.361385898     0.871503603     0.260550053 
H10 2     0.062891313     1.111365954     0.196538116 
H11 2     0.298293647     1.278227119     0.207594125 
H12 2     0.228067963     0.601272762     0.319637633 
H13 2    -0.008706269     0.577807683     0.386576835 
H14 2    -0.021460364     0.434006756     0.251350364 
H15 2    -0.363662715     0.663504561     0.313177246 
H16 2    -0.392779705     0.709344494     0.180588586 
H17 2    -0.392730671     0.501477226     0.183711209 
H18 2     0.685411778     1.111321230     0.274957641 
H19 2     0.707856390     1.191972346     0.424498430 
H20 2     0.677193934     1.323689829     0.336057949 
H21 2     0.099451936     1.213961087     0.410215942 
H22 2     0.362206272     1.246917594     0.504168902 
H23 2     0.335470340     1.382526405     0.418205078 
N1 3     0.306863757     1.043654338     0.106714946 
O1 4     0.314143419     0.801243120    -0.021085622 
END