TITL TTSORB TTSORB TTSORB
CELL  0.7 9.638 8.088 5.06 121.27 101.71 83.16
ZERR 2 0.000 0.000 0.000 0.00 0.00 0.00
LATT 1
SFAC  C H N O
UNIT 12 18 2 2
FVAR 1.00
C1 1     0.827386584     0.566751385    -0.152661025 
C2 1     0.680699735     0.642751080    -0.197565194 
C3 1     0.589536112     0.705494977     0.005816784 
C4 1     0.448401745     0.778097092    -0.046946756 
C5 1     0.354211061     0.842046579     0.150464776 
C6 1     0.211964766     0.913355868     0.070710934 
H1 2     0.852873581     0.567795462     0.068886834 
H2 2     0.906392226     0.653132468    -0.154485145 
H3 2     0.840332564     0.418002690    -0.343974372 
H4 2     0.646409661     0.646826370    -0.413120906 
H5 2     0.622003310     0.702536290     0.222638291 
H6 2     0.414780706     0.781981967    -0.262541547 
H7 2     0.380862484     0.842778613     0.370659310 
H8 2     0.148660539     0.945744818     0.465955583 
H9 2     0.024157750     1.009126791     0.233393262 
N1 3     0.125287192     0.974394317     0.290344569 
O1 4     0.173819986     0.921263225    -0.169155412 
END