TITL VICHAR VICHAR VICHAR
CELL  0.7 6.8308 7.5584 12.48 104.658 96.18 102.556
ZERR 2 0.0011 0.0011 0.002 0.018 0.02 0.019
LATT 1
SFAC  C H N O
UNIT 26 42 2 2
FVAR 1.00
C1 1     0.261158550     0.225819095     0.358049428 
C2 1     0.322714034     0.349250431     0.280221084 
C3 1     0.115381767     0.036403332     0.286446001 
C4 1     0.217918150    -0.068304037     0.194807189 
C5 1     0.281115247     0.060363676     0.119654321 
C6 1     0.428611937     0.250798517     0.188195078 
C7 1     0.454495794     0.187420501     0.413722908 
C8 1     0.559056998     0.085444968     0.322694889 
C9 1     0.619087717     0.210661056     0.245709549 
C10 1     0.411615320    -0.103066459     0.252601905 
C11 1     0.083735894     0.270316841     0.526487731 
C12 1     0.487226045     0.376255732     0.111922115 
C13 1     0.070968278    -0.255480336     0.124864802 
H1 2     0.486065069    -0.178557596     0.188655151 
H2 2     0.186401343     0.379297283     0.241197819 
H3 2     0.414019806     0.100912418     0.470366072 
H4 2     0.353845592    -0.011760892     0.053413205 
H5 2     0.369652913    -0.194686318     0.306486395 
H6 2     0.068030620    -0.053254451     0.340524376 
H7 2     0.425080634     0.485294652     0.330432385 
H8 2     0.144951142     0.085906332     0.077237745 
H9 2     0.696669813     0.140725091     0.181344187 
H10 2    -0.022732517     0.064061915     0.248009527 
H11 2     0.557028195     0.322076302     0.465194568 
H12 2     0.591951945     0.511974173     0.159901040 
H13 2     0.726698144     0.344626949     0.294545303 
H14 2     0.101635715     0.128461291     0.526990165 
H15 2     0.147866002     0.459316683     0.439385702 
H16 2     0.695734132     0.058332815     0.363059871 
H17 2     0.562486950     0.307669411     0.046062518 
H18 2     0.025062876    -0.347816346     0.177602706 
H19 2     0.352631944     0.405403872     0.070833220 
H20 2    -0.067117690    -0.231813711     0.083771399 
H21 2     0.141833219    -0.331131070     0.059270888 
N1 3     0.161385164     0.329750141     0.442149257 
O1 4     0.002233256     0.361227739     0.595279506 
END