TITL VOKBEE VOKBEE VOKBEE
CELL  0.7 7.0987 7.7302 10.2072 94.488 102.943 101.914
ZERR 2 0.0006 0.0006 0.0007 0.006 0.006 0.007
LATT 1
SFAC  C H N O
UNIT 24 34 2 2
FVAR 1.00
C1 1     0.275195446     0.758922803     0.761606088 
C2 1     0.376051610     0.649041410     0.840598056 
C3 1     0.078882685     0.992837597     0.761181436 
C4 1     0.091950450     1.165902427     0.850463107 
C5 1    -0.275965436     1.143329656     0.754953707 
C6 1    -0.131511521     0.872070212     0.731422848 
C7 1    -0.288649340     0.969578959     0.666208107 
C8 1     0.226635237     0.717031708     0.619631132 
C9 1     0.427108403     0.504013502     0.779974466 
C10 1     0.278721064     0.571162928     0.560126227 
C11 1     0.378963207     0.463267566     0.638966596 
C12 1    -0.066631319     1.263150886     0.786939647 
H1 2     0.243069291     0.903050186     0.925580249 
H2 2    -0.445245010     1.026253890     0.864402537 
H3 2     0.414612584     0.679498304     0.950465823 
H4 2     0.109476825     1.029137903     0.664821979 
H5 2     0.240830421     1.251924272     0.867682695 
H6 2     0.069957892     1.133679816     0.949580913 
H7 2    -0.382228182     1.215010551     0.701000538 
H8 2    -0.140312178     0.749737021     0.666448337 
H9 2    -0.159381392     0.833186422     0.827616152 
H10 2    -0.438282434     0.883301155     0.647485110 
H11 2    -0.268228255     1.001815937     0.566658298 
H12 2     0.148912091     0.798462964     0.555568377 
H13 2     0.504880967     0.421777443     0.843638170 
H14 2     0.239466508     0.541804792     0.450286572 
H15 2     0.418489447     0.349723654     0.591810192 
H16 2    -0.060326334     1.381871903     0.855129684 
H17 2    -0.038425952     1.308249112     0.692355410 
N1 3     0.233979873     0.907446195     0.825560194 
O1 4    -0.317396652     1.108968826     0.882577349 
END