TITL YIZHAR YIZHAR YIZHAR
CELL  0.7 6.7282 9.173 9.2223 88.759 69.472 74.386
ZERR 2 0.0008 0.0011 0.0012 0.007 0.006 0.007
LATT 1
SFAC  C H N O
UNIT 24 34 2 2
FVAR 1.00
C1 1     0.521277808     0.662474353     0.295906436 
C2 1     0.271593728     0.688371214     0.326939657 
C3 1     0.163754200     0.651988529     0.495987865 
C4 1     0.225294640     0.727609408     0.611687152 
C5 1     0.095118506     0.748869699     0.769494131 
C6 1     0.153107405     0.814276038     0.878172304 
C7 1     0.346092444     0.860732693     0.827579003 
C8 1     0.418857436     0.776010166     0.561656782 
C9 1     0.477430394     0.842262867     0.670839851 
C10 1     0.662585518     0.684316774     0.130828898 
C11 1     0.239209840     0.581549203     0.216725902 
C12 1     0.162477629     0.854186901     0.307729547 
H1 2     0.703136317     0.766649938     0.381015720 
H2 2     0.582991435     0.542810455     0.317790647 
H3 2    -0.015677855     0.686318550     0.526869736 
H4 2     0.213254414     0.528235323     0.501288930 
H5 2    -0.054877652     0.712340449     0.807313608 
H6 2     0.049336885     0.829059645     1.000230762 
H7 2     0.394490805     0.911923636     0.910234497 
H8 2     0.626658852     0.879713890     0.631160749 
H9 2     0.610088504     0.800705820     0.100756966 
H10 2     0.655721499     0.606593108     0.045862965 
H11 2     0.835911592     0.660551132     0.120254812 
H12 2     0.064019623     0.588941540     0.250153748 
H13 2     0.329168178     0.463609332     0.220931607 
H14 2     0.296853777     0.611145924     0.096431861 
H15 2     0.181896357     0.929963909     0.388949410 
H16 2     0.244763487     0.882641209     0.189220233 
H17 2    -0.139148069     0.977501876     0.345377907 
N1 3     0.545491305     0.764803391     0.403791559 
O1 4    -0.065369001     0.870443026     0.336236750 
END