TITL ZAFWEL ZAFWEL ZAFWEL
CELL  0.7 6.8086 8.3354 11.1192 68.507 88.425 87.301
ZERR 2 0.0004 0.0006 0.0008 0.005 0.006 0.005
LATT 1
SFAC  C H N O
UNIT 26 38 2 2
FVAR 1.00
C1 1     1.000525567     0.443246528     0.213126660 
C2 1     0.791903326     0.480377045     0.254573419 
C3 1     0.664911819     0.501991918     0.134256905 
C4 1     0.657714202     0.316191470     0.132759433 
C5 1     0.786956930     0.207712250     0.249889946 
C6 1     0.996451546     0.262706632     0.209739915 
C7 1     0.739094696     0.295638176     0.350031065 
C8 1     0.872232424     0.226559221     0.468826272 
C9 1     0.524610075     0.281516399     0.396911246 
C10 1     0.775389699     0.629809882     0.301337588 
C11 1     1.135956064     0.024115857     0.170980065 
C12 1     1.324415733    -0.087210467     0.204805300 
C13 1     1.262109670    -0.008636355     0.066782900 
H1 2     0.518347431     0.554604920     0.145529083 
H2 2     0.729289541     0.592959579     0.045788046 
H3 2     0.715663350     0.307289284     0.042687504 
H4 2     0.507759674     0.270806211     0.145563003 
H5 2     0.766120291     0.068992424     0.285110365 
H6 2     0.841990898     0.091699468     0.525612805 
H7 2     0.845054106     0.300437320     0.531591859 
H8 2     1.028742884     0.232379517     0.443438373 
H9 2     0.418686855     0.332011264     0.318720369 
H10 2     0.492554118     0.146312868     0.451300663 
H11 2     0.498188726     0.352264927     0.461926353 
H12 2     0.622731655     0.655837581     0.324306382 
H13 2     0.863964903     0.603870391     0.387522278 
H14 2     0.829995188     0.746409363     0.226868610 
H15 2     0.998014496    -0.042330378     0.196059332 
H16 2     1.309446901    -0.224641611     0.256256389 
H17 2     1.445869545    -0.031239242     0.234530870 
H18 2     1.203251163    -0.090827167     0.021248081 
H19 2     1.341323419     0.100580126     0.002961146 
N1 3     1.145607371     0.190921615     0.175694573 
O1 4     1.137345747     0.538432988     0.186943199 
END