TITL ZETKUE ZETKUE ZETKUE
CELL  0.7 7.513 8.557 8.769 66.7 73.41 66.91
ZERR 2 0.001 0.001 0.001 0.01 0.02 0.01
LATT 1
SFAC  C H N O
UNIT 20 34 2 2
FVAR 1.00
C1 1     0.397635155     0.702108004     0.671869109 
C2 1     0.296511062     0.577267347     0.674485826 
C3 1     0.595767520     0.591409799     0.736127131 
C4 1     0.700717754     0.712894423     0.735528351 
C5 1     0.565385020     0.846423201     0.827105855 
C6 1     0.263332297     1.097113023     0.819585343 
C7 1     0.095203100     1.217434833     0.719193941 
C8 1    -0.010323377     1.105941172     0.708135631 
C9 1     0.069709779     0.929138409     0.739953139 
C10 1     0.273330687     0.824917881     0.782444788 
H1 2     0.433077308     0.921666352     0.511664298 
H2 2     0.253612566     0.497755988     0.803318596 
H3 2     0.396784171     0.484966140     0.606497472 
H4 2     0.167083831     0.653159744     0.612403586 
H5 2     0.569975633     0.500333272     0.864072776 
H6 2     0.686169328     0.508359403     0.656388442 
H7 2     0.833294889     0.633408807     0.793745075 
H8 2     0.746148039     0.787431335     0.605288009 
H9 2     0.536536056     0.774910611     0.963429695 
H10 2     0.635405662     0.943083678     0.812971836 
H11 2     0.358428285     1.172285301     0.807427553 
H12 2     0.203669805     1.050210822     0.954457934 
H13 2    -0.005909767     1.317279383     0.779299282 
H14 2     0.151868625     1.292841716     0.592726098 
H15 2    -0.156841282     1.173068372     0.674701973 
H16 2    -0.012933890     0.851927897     0.735794212 
H17 2     0.261555854     0.736235131     0.915101496 
N1 3     0.382020450     0.946053049     0.757466422 
O1 4     0.427915427     0.814004913     0.502226129 
END