TITL ZETLAL ZETLAL ZETLAL
CELL  0.7 7.153 8.375 8.733 99.47 109.6 110.89
ZERR 2 0.001 0.001 0.001 0.01 0.01 0.01
LATT 1
SFAC  C H N O
UNIT 18 30 2 2
FVAR 1.00
C1 1     0.402559655     0.613361997     0.671894874 
C2 1     0.391623789     0.773283170     0.776696581 
C3 1     0.190058585     0.713420487     0.813171324 
C4 1     0.063590008     0.540855916     0.787557840 
C5 1     0.114092884     0.393090921     0.718696664 
C6 1     0.112061242     0.250264626     0.810680180 
C7 1     0.236933730     0.163359323     0.737346983 
C8 1     0.370675850     0.306866355     0.674690712 
C9 1    -0.115837776     0.116838464     0.781866431 
H1 2     0.290305049     0.573201669     0.534456078 
H2 2     0.570074628     0.651472033     0.680934456 
H3 2     0.541076117     0.843531642     0.898901232 
H4 2     0.392577393     0.872164545     0.708304016 
H5 2     0.150268253     0.818303341     0.863908496 
H6 2    -0.081642808     0.502490961     0.813760906 
H7 2    -0.004006285     0.320658460     0.581121311 
H8 2     0.342410684     0.132486978     0.839230495 
H9 2     0.121467049     0.037377513     0.631439942 
H10 2     0.546344196     0.338146102     0.724336741 
H11 2     0.301420070     0.260705458     0.532896794 
H12 2    -0.222056332     0.045534940     0.644862504 
H13 2    -0.194258302     0.186759483     0.835380521 
H14 2    -0.102087356     0.017421985     0.846405770 
H15 2     0.364014375     0.443333925     1.001663712 
N1 3     0.343121132     0.465286681     0.739654526 
O1 4     0.236484176     0.339873025     0.991000914 
END