TITL ZOBXIX ZOBXIX ZOBXIX
CELL  0.7 6.4423 6.5451 11.0543 95.175 94.45 114.105
ZERR 2 0.0005 0.0005 0.0006 0.006 0.006 0.006
LATT 1
SFAC  C H N O
UNIT 22 26 2 2
FVAR 1.00
C1 1    -0.062923261     0.383949595     0.184203078 
C2 1     0.087450390     0.642277473     0.195331275 
C3 1     0.332467422     0.707011789     0.161073915 
C4 1     0.480705775     0.881331121     0.271157450 
C5 1     0.381010031     0.725275177     0.367649297 
C6 1     0.119907845     0.653971093     0.338089258 
C7 1    -0.004698992     0.391001733     0.325690489 
C8 1     0.185177420     0.314422100     0.357968722 
C9 1     0.400170312     0.501682796     0.322152214 
C10 1     0.396811655     0.507091533     0.179317028 
C11 1     0.234040161     0.287626043     0.101707997 
H1 2    -0.106926699     0.095214158     0.058578878 
H2 2    -0.244474297     0.339746956     0.158094271 
H3 2     0.005014891     0.741473271     0.155628444 
H4 2     0.356194437     0.760583483     0.070520551 
H5 2     0.448018100     1.033198508     0.280796702 
H6 2     0.664577177     0.931926556     0.268993432 
H7 2     0.451689145     0.792187747     0.463166257 
H8 2     0.049910045     0.753599306     0.391543838 
H9 2    -0.153630447     0.316040487     0.374331906 
H10 2     0.149648895     0.146189435     0.311987103 
H11 2     0.206979181     0.309544172     0.456814940 
H12 2     0.557819631     0.494212369     0.360704225 
H13 2     0.567132360     0.542776320     0.153527066 
N1 3     0.007583439     0.247223595     0.101685746 
O1 4     0.296445380     0.159643182     0.043285916 
END